…
# Stemming

``` r
gruene_stem <- 
  gruene_long %>% 
  mutate(stem = wordStem(word, language = "german")) %>% 
  count(stem, sort = TRUE)
```

``` r
gruene_stem
```

    ## # A tibble: 5,585 × 2
    ##    stem           n
    ##    <chr>      <int>
    ##  1 alt            9
    ##  2 lang           9
    ##  3 wirtschaft     9
    ##  4 gross          8
    ##  5 hoh            8
    ##  6 klein          8
    ##  7 sich           8
    ##  8 stark          8
    ##  9 beruf          7
    ## 10 eig            7
    ## # ℹ 5,575 more rows
…
## Nearest neighbours

Aus smltar:

``` r
tidy_word_vectors <- tidy_pmi %>%
  widely_svd(
    item1, item2, pmi,
    nv = 100, maxit = 1000
  )

tidy_word_vectors
```

    ## # A tibble: 732,800 × 3
    ##    item1        dimension     value
    ##    <chr>            <int>     <dbl>
    ##  1 innen                1  2.13e-19
    ##  2 menschen             1  4.49e-19
    ##  3 mehr                 1 -7.40e-19
    ##  4 bayern               1  1.13e-18
    ##  5 dass                 1 -3.97e-19
    ##  6 unsere               1  3.27e-19
    ##  7 unterstützen         1  8.20e-19
    ##  8 dafür                1  1.83e-18
    ##  9 schaffen             1  8.79e-19
    ## 10 stärken              1 -2.34e-18
    ## # ℹ 732,790 more rows
…
        matrix(res, ncol = 1, dimnames = list(x = names(res)))
      },
      sort = TRUE
    )(item1, dimension, value) %>%
    select(-item2)
}
```

``` r
tidy_word_vectors %>% 
  nearest_neighbours("bayern")
```

    ## # A tibble: 7,328 × 2
    ##    item1        value
    ##    <chr>        <dbl>
    ##  1 bayern      1     
    ##  2 kinder      0.118 
    ##  3 mehr        0.115 
    ##  4 menschen    0.0875
    ##  5 leben       0.0750
    ##  6 unserer     0.0593
    ##  7 bayerischen 0.0425
    ##  8 schaffen    0.0394
    ##  9 unternehmen 0.0369
    ## 10 setzen      0.0365
    ## # ℹ 7,318 more rows

``` r
tidy_word_vectors %>% 
  nearest_neighbours("verbieten")
```

    ## # A tibble: 7,328 × 2
    ##    item1                 value
    ##    <chr>                 <dbl>
    ##  1 verbieten             1    
    ##  2 eingesetzte           0.539
    ##  3 beteili               0.536
    ##  4 studierendenwerke     0.527
    ##  5 letztes               0.525
    ##  6 harmonisierung        0.518
    ##  7 ersparnis             0.473
    ##  8 tierschutzrechtlichen 0.467
    ##  9 partizipation         0.466
    ## 10 fern                  0.463
    ## # ℹ 7,318 more rows
